…
```r
deserts %>% 
  group_by(genus, species) %>% 
  summarise(n_observations = n(), .groups = "keep") %>% 
  arrange(desc(n_observations))
```

```
## # A tibble: 48 x 3
## # Groups:   genus, species [48]
##    genus           species      n_observations
##    <chr>           <chr>                 <int>
##  1 Dipodomys       merriami              10596
##  2 Chaetodipus     penicillatus           3123
##  3 Dipodomys       ordii                  3027
##  4 Chaetodipus     baileyi                2891
##  5 Reithrodontomys megalotis              2609
##  6 Dipodomys       spectabilis            2504
##  7 Onychomys       torridus               2249
##  8 Perognathus     flavus                 1597
##  9 Peromyscus      eremicus               1299
## 10 Neotoma         albigula               1252
## # ... with 38 more rows
```
…
9. Which two species have, on average, the highest weight? Once you have identified them, make a new column that is a ratio of `weight` to `hindfoot_length`. Make a plot that shows the range of this new ratio and fill by sex.

```r
deserts %>% 
  filter(weight != "NA") %>% 
  group_by(genus, species) %>% 
  summarise(mean_weight = mean(weight), .groups = "keep") %>% 
  arrange(desc(mean_weight))
```

```
## # A tibble: 25 x 3
## # Groups:   genus, species [25]
##    genus        species      mean_weight
##    <chr>        <chr>              <dbl>
##  1 Neotoma      albigula           159. 
##  2 Dipodomys    spectabilis        120. 
##  3 Spermophilus spilosoma           93.5
##  4 Sigmodon     hispidus            73.1
##  5 Sigmodon     fulviventer         58.9
##  6 Sigmodon     ochrognathus        55.4
##  7 Dipodomys    ordii               48.9
##  8 Dipodomys    merriami            43.2
##  9 Chaetodipus  baileyi             31.7
## 10 Onychomys    leucogaster         31.6
## # ... with 15 more rows
```
…
