…
## Questions
The questions below are open-ended and have many possible solutions. Your approach should, where appropriate, include numerical summaries and visuals. Be creative; assume you are building an analysis that you would ultimately present to an audience of stakeholders. Feel free to try out different `geoms` if they more clearly present your results.  

**1. Use the function(s) of your choice to get an idea of the overall structure of the data frame, including its dimensions, column names, variable classes, etc. As part of this, determine how NA's are treated in the data.**  

```r
gapminder
```

```
## # A tibble: 1,704 x 6
##    country     continent  year lifeExp      pop gdpPercap
##    <fct>       <fct>     <int>   <dbl>    <int>     <dbl>
##  1 Afghanistan Asia       1952    28.8  8425333      779.
##  2 Afghanistan Asia       1957    30.3  9240934      821.
##  3 Afghanistan Asia       1962    32.0 10267083      853.
##  4 Afghanistan Asia       1967    34.0 11537966      836.
##  5 Afghanistan Asia       1972    36.1 13079460      740.
##  6 Afghanistan Asia       1977    38.4 14880372      786.
##  7 Afghanistan Asia       1982    39.9 12881816      978.
##  8 Afghanistan Asia       1987    40.8 13867957      852.
##  9 Afghanistan Asia       1992    41.7 16317921      649.
## 10 Afghanistan Asia       1997    41.8 22227415      635.
## # ... with 1,694 more rows
```
…
```r
gapminder1 %>% 
  group_by(year, continent) %>% 
  summarise(min_life = min(life_exp),
            max_life = max(life_exp),
            mean_life = mean(life_exp))
```

```
## `summarise()` has grouped output by 'year'. You can override using the `.groups` argument.
```

```
## # A tibble: 60 x 5
## # Groups:   year [12]
##    year  continent min_life max_life mean_life
##    <fct> <fct>        <dbl>    <dbl>     <dbl>
##  1 1952  Africa        30       52.7      39.1
##  2 1952  Americas      37.6     68.8      53.3
##  3 1952  Asia          28.8     65.4      46.3
##  4 1952  Europe        43.6     72.7      64.4
##  5 1952  Oceania       69.1     69.4      69.3
##  6 1957  Africa        31.6     58.1      41.3
##  7 1957  Americas      40.7     70.0      56.0
##  8 1957  Asia          30.3     67.8      49.3
##  9 1957  Europe        48.1     73.5      66.7
## 10 1957  Oceania       70.3     70.3      70.3
## # ... with 50 more rows
```
…
