…
**4. What taxa are represented in the `homerange` data frame? Make a new data frame `taxa` that is restricted to taxon, common name, class, order, family, genus, species.**

```r
taxa <- select(homerange, "taxon", "common.name", "class", "order", "family", "genus", "species")
taxa <- rename(taxa, "common_name" = common.name)
taxa
```

```
## # A tibble: 569 x 7
##    taxon     common_name       class      order     family    genus    species  
##    <fct>     <chr>             <chr>      <fct>     <chr>     <chr>    <chr>    
##  1 lake fis… american eel      actinopte… anguilli… anguilli… anguilla rostrata 
##  2 river fi… blacktail redhor… actinopte… cyprinif… catostom… moxosto… poecilura
##  3 river fi… central stonerol… actinopte… cyprinif… cyprinid… campost… anomalum 
##  4 river fi… rosyside dace     actinopte… cyprinif… cyprinid… clinost… funduloi…
##  5 river fi… longnose dace     actinopte… cyprinif… cyprinid… rhinich… cataract…
##  6 river fi… muskellunge       actinopte… esocifor… esocidae  esox     masquino…
##  7 marine f… pollack           actinopte… gadiform… gadidae   pollach… pollachi…
##  8 marine f… saithe            actinopte… gadiform… gadidae   pollach… virens   
##  9 marine f… lined surgeonfish actinopte… percifor… acanthur… acanthu… lineatus 
## 10 marine f… orangespine unic… actinopte… percifor… acanthur… naso     lituratus
## # … with 559 more rows
```
…
**7. Make two new data frames, one which is restricted to carnivores and another that is restricted to herbivores.**  

```r
carnivore <- filter(homerange, trophic.guild == "carnivore")
carnivore
```

```
## # A tibble: 342 x 24
##    taxon common.name class order family genus species primarymethod N    
##    <fct> <chr>       <chr> <fct> <chr>  <chr> <chr>   <chr>         <chr>
##  1 lake… american e… acti… angu… angui… angu… rostra… telemetry     16   
##  2 rive… blacktail … acti… cypr… catos… moxo… poecil… mark-recaptu… <NA> 
##  3 rive… central st… acti… cypr… cypri… camp… anomal… mark-recaptu… 20   
##  4 rive… rosyside d… acti… cypr… cypri… clin… fundul… mark-recaptu… 26   
##  5 rive… longnose d… acti… cypr… cypri… rhin… catara… mark-recaptu… 17   
##  6 rive… muskellunge acti… esoc… esoci… esox  masqui… telemetry     5    
##  7 mari… pollack     acti… gadi… gadid… poll… pollac… telemetry     2    
##  8 mari… saithe      acti… gadi… gadid… poll… virens  telemetry     2    
##  9 mari… giant trev… acti… perc… caran… cara… ignobi… telemetry     4    
## 10 lake… rock bass   acti… perc… centr… ambl… rupest… mark-recaptu… 16   
## # … with 332 more rows, and 15 more variables: mean.mass.g <dbl>,
## #   log10.mass <dbl>, alternative.mass.reference <chr>, mean.hra.m2 <dbl>,
## #   log10.hra <dbl>, hra.reference <chr>, realm <chr>, thermoregulation <chr>,
## #   locomotion <chr>, trophic.guild <chr>, dimension <chr>, preymass <dbl>,
## #   log10.preymass <dbl>, PPMR <dbl>, prey.size.reference <chr>
```


```r
herbivore <- filter(homerange, trophic.guild == "herbivore")
herbivore
```

```
## # A tibble: 227 x 24
##    taxon common.name class order family genus species primarymethod N    
##    <fct> <chr>       <chr> <fct> <chr>  <chr> <chr>   <chr>         <chr>
##  1 mari… lined surg… acti… perc… acant… acan… lineat… direct obser… <NA> 
##  2 mari… orangespin… acti… perc… acant… naso  litura… telemetry     8    
##  3 mari… bluespine … acti… perc… acant… naso  unicor… telemetry     7    
##  4 mari… redlip ble… acti… perc… blenn… ophi… atlant… direct obser… 20   
##  5 mari… bermuda ch… acti… perc… kypho… kyph… sectat… telemetry     11   
##  6 mari… cherubfish  acti… perc… pomac… cent… argi    direct obser… <NA> 
##  7 mari… damselfish  acti… perc… pomac… chro… chromis direct obser… <NA> 
##  8 mari… twinspot d… acti… perc… pomac… chry… biocel… direct obser… 18   
##  9 mari… wards dams… acti… perc… pomac… poma… wardi   direct obser… <NA> 
## 10 mari… australian… acti… perc… pomac… steg… apical… direct obser… <NA> 
## # … with 217 more rows, and 15 more variables: mean.mass.g <dbl>,
## #   log10.mass <dbl>, alternative.mass.reference <chr>, mean.hra.m2 <dbl>,
## #   log10.hra <dbl>, hra.reference <chr>, realm <chr>, thermoregulation <chr>,
## #   locomotion <chr>, trophic.guild <chr>, dimension <chr>, preymass <dbl>,
## #   log10.preymass <dbl>, PPMR <dbl>, prey.size.reference <chr>
```
…
```r
carnivore_mean <- carnivore[ , 13]
carnivore_mean
```

```
## # A tibble: 342 x 1
##    mean.hra.m2
##          <dbl>
##  1    282750  
##  2       282. 
##  3       116. 
##  4       126. 
##  5        87.1
##  6     39344. 
##  7      9056. 
##  8     44516. 
##  9     52773  
## 10     10407. 
## # … with 332 more rows
```
…
```r
snakes <- select(homerange, "taxon", "family", "genus", "species", "common.name", "mean.hra.m2")
snakes
```

```
## # A tibble: 569 x 6
##    taxon       family      genus     species    common.name          mean.hra.m2
##    <fct>       <chr>       <chr>     <chr>      <chr>                      <dbl>
##  1 lake fishes anguillidae anguilla  rostrata   american eel            282750  
##  2 river fish… catostomid… moxostoma poecilura  blacktail redhorse         282. 
##  3 river fish… cyprinidae  camposto… anomalum   central stoneroller        116. 
##  4 river fish… cyprinidae  clinosto… funduloid… rosyside dace              126. 
##  5 river fish… cyprinidae  rhinicht… cataractae longnose dace               87.1
##  6 river fish… esocidae    esox      masquinon… muskellunge              39344. 
##  7 marine fis… gadidae     pollachi… pollachius pollack                   9056. 
##  8 marine fis… gadidae     pollachi… virens     saithe                   44516. 
##  9 marine fis… acanthurid… acanthur… lineatus   lined surgeonfish           11.1
## 10 marine fis… acanthurid… naso      lituratus  orangespine unicorn…     32093. 
## # … with 559 more rows
```

```r
snakes <- filter(snakes, taxon == "snakes")
snakes
```

```
## # A tibble: 41 x 6
##    taxon  family    genus     species             common.name        mean.hra.m2
##    <fct>  <chr>     <chr>     <chr>               <chr>                    <dbl>
##  1 snakes colubrid… carphopis vermis              western worm snake         700
##  2 snakes colubrid… carphopis viridis             eastern worm snake         253
##  3 snakes colubrid… coluber   constrictor         racer                   151000
##  4 snakes colubrid… coluber   constrictor flaviv… yellow bellied ra…      114500
##  5 snakes colubrid… diadophis punctatus           ringneck snake            6476
##  6 snakes colubrid… drymarch… couperi             eastern indigo sn…     1853000
##  7 snakes colubrid… elaphe    guttata emoryi      great plains rats…      150600
##  8 snakes colubrid… elaphe    obsoleta            western ratsnake         46000
##  9 snakes colubrid… heterodon platirhinos         hognose snake           516375
## 10 snakes colubrid… hierophis viridiflavus        European whipsnake      110900
## # … with 31 more rows
```

```r
arrange(snakes, mean.hra.m2)
```

```
## # A tibble: 41 x 6
##    taxon  family     genus       species      common.name          mean.hra.m2
##    <fct>  <chr>      <chr>       <chr>        <chr>                      <dbl>
##  1 snakes viperidae  bitis       schneideri   namaqua dwarf adder         200 
##  2 snakes colubridae carphopis   viridis      eastern worm snake          253 
##  3 snakes colubridae thamnophis  butleri      butlers garter snake        600 
##  4 snakes colubridae carphopis   vermis       western worm snake          700 
##  5 snakes viperidae  vipera      latastei     snubnosed viper            2400 
##  6 snakes viperidae  gloydius    shedaoensis  chinese pit viper          2614.
##  7 snakes colubridae diadophis   punctatus    ringneck snake             6476 
##  8 snakes viperidae  agkistrodon piscivorous  cottonmouth               10655 
##  9 snakes colubridae oocatochus  rufodorsatus redbacked ratsnake        15400 
## 10 snakes colubridae pituophis   catenifer    gopher snake              17400 
## # … with 31 more rows
```
…
