…
**1. Use the function(s) of your choice to get an idea of the overall structure of the data frame, including its dimensions, column names, variable classes, etc. As part of this, determine if there are NA's and how they are treated.**  


```r
UC_admit
```

```
## # A tibble: 2,160 x 6
##    Campus Academic_Yr Category   Ethnicity        `Perc FR` FilteredCountFR
##    <chr>        <dbl> <chr>      <chr>            <chr>               <dbl>
##  1 Davis         2019 Applicants International    21.16%              16522
##  2 Davis         2019 Applicants Unknown          2.51%                1959
##  3 Davis         2019 Applicants White            18.39%              14360
##  4 Davis         2019 Applicants Asian            30.76%              24024
##  5 Davis         2019 Applicants Chicano/Latino   22.44%              17526
##  6 Davis         2019 Applicants American Indian  0.35%                 277
##  7 Davis         2019 Applicants African American 4.39%                3425
##  8 Davis         2019 Applicants All              100.00%             78093
##  9 Davis         2018 Applicants International    19.87%              15507
## 10 Davis         2018 Applicants Unknown          2.83%                2208
## # ... with 2,150 more rows
```
…
```r
UC_admit <- clean_names(UC_admit)
UC_admit
```

```
## # A tibble: 2,160 x 6
##    campus academic_yr category   ethnicity        perc_fr filtered_count_fr
##    <chr>        <dbl> <chr>      <chr>            <chr>               <dbl>
##  1 Davis         2019 Applicants International    21.16%              16522
##  2 Davis         2019 Applicants Unknown          2.51%                1959
##  3 Davis         2019 Applicants White            18.39%              14360
##  4 Davis         2019 Applicants Asian            30.76%              24024
##  5 Davis         2019 Applicants Chicano/Latino   22.44%              17526
##  6 Davis         2019 Applicants American Indian  0.35%                 277
##  7 Davis         2019 Applicants African American 4.39%                3425
##  8 Davis         2019 Applicants All              100.00%             78093
##  9 Davis         2018 Applicants International    19.87%              15507
## 10 Davis         2018 Applicants Unknown          2.83%                2208
## # ... with 2,150 more rows
```
…
```r
uc_admit_perc <- UC_admit %>% 
  mutate(perc_fc_dbl = str_replace(perc_fr, "%", "")) %>% 
  select(-perc_fr)
uc_admit_perc$perc_fc_dbl <- as.numeric(uc_admit_perc$perc_fc_dbl)
uc_admit_perc$academic_yr <- as.factor(uc_admit_perc$academic_yr)
uc_admit_perc
```

```
## # A tibble: 2,160 x 6
##    campus academic_yr category   ethnicity        filtered_count_fr perc_fc_dbl
##    <chr>  <fct>       <chr>      <chr>                        <dbl>       <dbl>
##  1 Davis  2019        Applicants International                16522       21.2 
##  2 Davis  2019        Applicants Unknown                       1959        2.51
##  3 Davis  2019        Applicants White                        14360       18.4 
##  4 Davis  2019        Applicants Asian                        24024       30.8 
##  5 Davis  2019        Applicants Chicano/Latino               17526       22.4 
##  6 Davis  2019        Applicants American Indian                277        0.35
##  7 Davis  2019        Applicants African American              3425        4.39
##  8 Davis  2019        Applicants All                          78093      100   
##  9 Davis  2018        Applicants International                15507       19.9 
## 10 Davis  2018        Applicants Unknown                       2208        2.83
## # ... with 2,150 more rows
```
…
