…
```r
msleep
```

```
## # A tibble: 83 x 11
##    name  genus vore  order conservation sleep_total sleep_rem sleep_cycle awake
##    <chr> <chr> <chr> <chr> <chr>              <dbl>     <dbl>       <dbl> <dbl>
##  1 Chee… Acin… carni Carn… lc                  12.1      NA        NA      11.9
##  2 Owl … Aotus omni  Prim… <NA>                17         1.8      NA       7  
##  3 Moun… Aplo… herbi Rode… nt                  14.4       2.4      NA       9.6
##  4 Grea… Blar… omni  Sori… lc                  14.9       2.3       0.133   9.1
##  5 Cow   Bos   herbi Arti… domesticated         4         0.7       0.667  20  
##  6 Thre… Brad… herbi Pilo… <NA>                14.4       2.2       0.767   9.6
##  7 Nort… Call… carni Carn… vu                   8.7       1.4       0.383  15.3
##  8 Vesp… Calo… <NA>  Rode… <NA>                 7        NA        NA      17  
##  9 Dog   Canis carni Carn… domesticated        10.1       2.9       0.333  13.9
## 10 Roe … Capr… herbi Arti… lc                   3        NA        NA      21  
## # … with 73 more rows, and 2 more variables: brainwt <dbl>, bodywt <dbl>
```
…
There are also more specific ways to clean your column names, using `toupper()` or `tolower()`.

If there is ever blank spaces in your column names, you can replace them with a `str_replace()` function. (I didn't load any data here that had this issue.)

# Utilizing Your Data Frame
## Accessing Rows and Columns
We can use `[]` to access rows and columns. The first position applies to rows, and the second applies to columns.

```r
ps4_games[1]
```

```
## # A tibble: 1,034 x 1
##    game                          
##    <chr>                         
##  1 Grand Theft Auto V            
##  2 Call of Duty: Black Ops 3     
##  3 Red Dead Redemption 2         
##  4 Call of Duty: WWII            
##  5 FIFA 18                       
##  6 FIFA 17                       
##  7 Uncharted (PS4)               
##  8 Spider-Man (PS4)              
##  9 Call of Duty: Infinite Warfare
## 10 Fallout 4                     
## # … with 1,024 more rows
```

```r
ps4_games[ ,4]
```

```
## # A tibble: 1,034 x 1
##    publisher                     
##    <chr>                         
##  1 Rockstar Games                
##  2 Activision                    
##  3 Rockstar Games                
##  4 Activision                    
##  5 EA Sports                     
##  6 Electronic Arts               
##  7 Sony Interactive Entertainment
##  8 Sony Interactive Entertainment
##  9 Activision                    
## 10 Bethesda Softworks            
## # … with 1,024 more rows
```
…
## Subsetting Your Data Frame
One way to subset your data is using the `subset()` function, which pulls out observations that meet specific criteria in a variable.

```r
top_na_sales <- subset(ps4_games, north_america > 2)
top_na_sales
```

```
## # A tibble: 21 x 9
##    game   year  genre  publisher north_america europe japan rest_of_world global
##    <chr>  <chr> <chr>  <chr>             <dbl>  <dbl> <dbl>         <dbl>  <dbl>
##  1 Grand… 2014  Action Rockstar…          6.06   9.71  0.6           3.02  19.4 
##  2 Call … 2015  Shoot… Activisi…          6.18   6.05  0.41          2.44  15.1 
##  3 Red D… 2018  Actio… Rockstar…          5.26   6.21  0.21          2.26  13.9 
##  4 Call … 2017  Shoot… Activisi…          4.67   6.21  0.4           2.12  13.4 
##  5 Uncha… 2016  Action Sony Int…          4.49   3.93  0.21          1.7   10.3 
##  6 Spide… 2018  Actio… Sony Int…          3.64   3.39  0.32          1.41   8.76
##  7 Call … 2016  Shoot… Activisi…          3.11   3.83  0.19          1.36   8.48
##  8 Fallo… 2015  Role-… Bethesda…          2.91   3.97  0.27          1.34   8.48
##  9 Star … 2015  Shoot… Electron…          3.31   3.19  0.23          1.3    8.03
## 10 Call … 2014  Shoot… Activisi…          2.84   3.34  0.14          1.22   7.53
## # … with 11 more rows
```
# Tidyverse and dplyr
## `Select()`
`Select()` helps you pull out columns of interest from a dataframe. The order you add them in determines their appearance on the output.

```r
select(ps4_games, game, publisher, north_america)
```

```
## # A tibble: 1,034 x 3
##    game                           publisher                      north_america
##    <chr>                          <chr>                                  <dbl>
##  1 Grand Theft Auto V             Rockstar Games                          6.06
##  2 Call of Duty: Black Ops 3      Activision                              6.18
##  3 Red Dead Redemption 2          Rockstar Games                          5.26
##  4 Call of Duty: WWII             Activision                              4.67
##  5 FIFA 18                        EA Sports                               1.27
##  6 FIFA 17                        Electronic Arts                         1.26
##  7 Uncharted (PS4)                Sony Interactive Entertainment          4.49
##  8 Spider-Man (PS4)               Sony Interactive Entertainment          3.64
##  9 Call of Duty: Infinite Warfare Activision                              3.11
## 10 Fallout 4                      Bethesda Softworks                      2.91
## # … with 1,024 more rows
```
A range of columns can be selected via `startcol:endcol`.

```r
select(ps4_games, game:genre)
```

```
## # A tibble: 1,034 x 3
##    game                           year  genre           
##    <chr>                          <chr> <chr>           
##  1 Grand Theft Auto V             2014  Action          
##  2 Call of Duty: Black Ops 3      2015  Shooter         
##  3 Red Dead Redemption 2          2018  Action-Adventure
##  4 Call of Duty: WWII             2017  Shooter         
##  5 FIFA 18                        2017  Sports          
##  6 FIFA 17                        2016  Sports          
##  7 Uncharted (PS4)                2016  Action          
##  8 Spider-Man (PS4)               2018  Action-Adventure
##  9 Call of Duty: Infinite Warfare 2016  Shooter         
## 10 Fallout 4                      2015  Role-Playing    
## # … with 1,024 more rows
```
You can ignore columns you don't want to select with the `-` operator.

```r
select(ps4_games, -publisher, -global)
```

```
## # A tibble: 1,034 x 7
##    game                year  genre      north_america europe japan rest_of_world
##    <chr>               <chr> <chr>              <dbl>  <dbl> <dbl>         <dbl>
##  1 Grand Theft Auto V  2014  Action              6.06   9.71  0.6           3.02
##  2 Call of Duty: Blac… 2015  Shooter             6.18   6.05  0.41          2.44
##  3 Red Dead Redemptio… 2018  Action-Ad…          5.26   6.21  0.21          2.26
##  4 Call of Duty: WWII  2017  Shooter             4.67   6.21  0.4           2.12
##  5 FIFA 18             2017  Sports              1.27   8.64  0.15          1.73
##  6 FIFA 17             2016  Sports              1.26   7.95  0.12          1.61
##  7 Uncharted (PS4)     2016  Action              4.49   3.93  0.21          1.7 
##  8 Spider-Man (PS4)    2018  Action-Ad…          3.64   3.39  0.32          1.41
##  9 Call of Duty: Infi… 2016  Shooter             3.11   3.83  0.19          1.36
## 10 Fallout 4           2015  Role-Play…          2.91   3.97  0.27          1.34
## # … with 1,024 more rows
```
…
```
##  [1] "name"            "platform"        "year_of_release" "genre"          
##  [5] "publisher"       "na_sales"        "eu_sales"        "jp_sales"       
##  [9] "other_sales"     "global_sales"    "critic_score"    "critic_count"   
## [13] "user_score"      "user_count"      "developer"       "rating"
```

```r
select(video_game_sales, contains("sales"))
```

```
## # A tibble: 16,719 x 5
##    na_sales eu_sales jp_sales other_sales global_sales
##       <dbl>    <dbl>    <dbl>       <dbl>        <dbl>
##  1     41.4    29.0      3.77       8.45          82.5
##  2     29.1     3.58     6.81       0.77          40.2
##  3     15.7    12.8      3.79       3.29          35.5
##  4     15.6    10.9      3.28       2.95          32.8
##  5     11.3     8.89    10.2        1             31.4
##  6     23.2     2.26     4.22       0.580         30.3
##  7     11.3     9.14     6.5        2.88          29.8
##  8     14.0     9.18     2.93       2.84          28.9
##  9     14.4     6.94     4.7        2.24          28.3
## 10     26.9     0.63     0.28       0.47          28.3
## # … with 16,709 more rows
```
If columns are sequentially named, then you can use `starts_with()` to narrow in on them.

```r
select(video_game_sales, starts_with("critic"))
```

```
## # A tibble: 16,719 x 2
##    critic_score critic_count
##           <dbl>        <dbl>
##  1           76           51
##  2           NA           NA
##  3           82           73
##  4           80           73
##  5           NA           NA
##  6           NA           NA
##  7           89           65
##  8           58           41
##  9           87           80
## 10           NA           NA
## # … with 16,709 more rows
```
…
`contains()` selects columns that contain a string.

`matches()` contains columns that match a string.
*The `matches()` function can be used in regex, and is useful when you know if your column has a letter followed by a string.*

`one_of()` selects column names that are from a group of names.

Columns can also be selected (or ignored) based on their class of data.

```r
select_if(video_game_sales, is.character)
```

```
## # A tibble: 16,719 x 7
##    name             platform year_of_release genre    publisher developer rating
##    <chr>            <chr>    <chr>           <chr>    <chr>     <chr>     <chr> 
##  1 Wii Sports       Wii      2006            Sports   Nintendo  Nintendo  E     
##  2 Super Mario Bro… NES      1985            Platform Nintendo  <NA>      <NA>  
##  3 Mario Kart Wii   Wii      2008            Racing   Nintendo  Nintendo  E     
##  4 Wii Sports Reso… Wii      2009            Sports   Nintendo  Nintendo  E     
##  5 Pokemon Red/Pok… GB       1996            Role-Pl… Nintendo  <NA>      <NA>  
##  6 Tetris           GB       1989            Puzzle   Nintendo  <NA>      <NA>  
##  7 New Super Mario… DS       2006            Platform Nintendo  Nintendo  E     
##  8 Wii Play         Wii      2006            Misc     Nintendo  Nintendo  E     
##  9 New Super Mario… Wii      2009            Platform Nintendo  Nintendo  E     
## 10 Duck Hunt        NES      1984            Shooter  Nintendo  <NA>      <NA>  
## # … with 16,709 more rows
```

```r
select_if(video_game_sales, ~!is.character(.))
```

```
## # A tibble: 16,719 x 9
##    na_sales eu_sales jp_sales other_sales global_sales critic_score critic_count
##       <dbl>    <dbl>    <dbl>       <dbl>        <dbl>        <dbl>        <dbl>
##  1     41.4    29.0      3.77       8.45          82.5           76           51
##  2     29.1     3.58     6.81       0.77          40.2           NA           NA
##  3     15.7    12.8      3.79       3.29          35.5           82           73
##  4     15.6    10.9      3.28       2.95          32.8           80           73
##  5     11.3     8.89    10.2        1             31.4           NA           NA
##  6     23.2     2.26     4.22       0.580         30.3           NA           NA
##  7     11.3     9.14     6.5        2.88          29.8           89           65
##  8     14.0     9.18     2.93       2.84          28.9           58           41
##  9     14.4     6.94     4.7        2.24          28.3           87           80
## 10     26.9     0.63     0.28       0.47          28.3           NA           NA
## # … with 16,709 more rows, and 2 more variables: user_score <dbl>,
## #   user_count <dbl>
```
…
`!=` excludes.
`>`, `>=` is for greater than/greater than or equal to.
`<`, `<=` is for less than/less than or equal to.

### Filtering Multiple Observations

The `%in%` operator filters for multiple values in the same variable.

```r
filter(ps4_games, year %in% c(2016, 2018))
```

```
## # A tibble: 261 x 9
##    game   year  genre  publisher north_america europe japan rest_of_world global
##    <chr>  <chr> <chr>  <chr>             <dbl>  <dbl> <dbl>         <dbl>  <dbl>
##  1 Red D… 2018  Actio… Rockstar…          5.26   6.21 0.21           2.26  13.9 
##  2 FIFA … 2016  Sports Electron…          1.26   7.95 0.12           1.61  10.9 
##  3 Uncha… 2016  Action Sony Int…          4.49   3.93 0.21           1.7   10.3 
##  4 Spide… 2018  Actio… Sony Int…          3.64   3.39 0.32           1.41   8.76
##  5 Call … 2016  Shoot… Activisi…          3.11   3.83 0.19           1.36   8.48
##  6 Battl… 2016  Shoot… Electron…          2.2    3.65 0.290          1.12   7.26
##  7 God o… 2018  Action Sony Int…          2.83   2.17 0.13           1.02   6.15
##  8 Final… 2016  Role-… Square E…          1.81   1.53 1.05           0.68   5.07
##  9 Monst… 2018  Action Capcom             1.03   1.06 2.17           0.42   4.67
## 10 Overw… 2016  Shoot… Blizzard…          1.84   1.8  0.17           0.73   4.54
## # … with 251 more rows
```
…
`filter(condition1, condition2)` returns rows where **both** conditions are met. The same is true if you use the operator `&`.

`filter(condition1, !condition2)` returns rows where condition 1 is met, but not condition 2.

`filter(condition1 | condition2)`returns rows where condition 1 and/or condition 2 is met.

`filter(xor(condition1, condition2))` will return all rows where only **one** condition is met, but **not both**.


```r
filter(ps4_games, genre == "Role-Playing", (year != 2018 | north_america >= 3))
```

```
## # A tibble: 117 x 9
##    game   year  genre  publisher north_america europe japan rest_of_world global
##    <chr>  <chr> <chr>  <chr>             <dbl>  <dbl> <dbl>         <dbl>  <dbl>
##  1 Fallo… 2015  Role-… Bethesda…         2.91    3.97  0.27          1.34   8.48
##  2 The W… 2015  Role-… Namco Ba…         1.48    2.82  0.28          0.81   5.39
##  3 Final… 2016  Role-… Square E…         1.81    1.53  1.05          0.68   5.07
##  4 The E… 2016  Role-… Bethesda…         1.24    1.5   0.08          0.54   3.36
##  5 Blood… 2015  Role-… Sony Com…         1.3     1.05  0.28          0.48   3.11
##  6 Diabl… 2014  Role-… Blizzard…         0.83    1.48  0.08          0.44   2.82
##  7 Dark … 2016  Role-… Namco Ba…         1       0.63  0.44          0.34   2.42
##  8 Drago… 2014  Role-… Electron…         1.07    0.8   0.08          0.38   2.34
##  9 Drago… 2017  Role-… Square E…         0.290   0.22  1.43          0.1    2.04
## 10 Kingd… 2017  Role-… Square E…         0.75    0.51  0.23          0.26   1.75
## # … with 107 more rows
```

The fun thing about filters is they can also be used in conjunction with class-related commands. Look!

```r
filter(video_game_sales, !is.na(rating))
```

```
## # A tibble: 9,950 x 16
##    name  platform year_of_release genre publisher na_sales eu_sales jp_sales
##    <chr> <chr>    <chr>           <chr> <chr>        <dbl>    <dbl>    <dbl>
##  1 Wii … Wii      2006            Spor… Nintendo     41.4     29.0      3.77
##  2 Mari… Wii      2008            Raci… Nintendo     15.7     12.8      3.79
##  3 Wii … Wii      2009            Spor… Nintendo     15.6     10.9      3.28
##  4 New … DS       2006            Plat… Nintendo     11.3      9.14     6.5 
##  5 Wii … Wii      2006            Misc  Nintendo     14.0      9.18     2.93
##  6 New … Wii      2009            Plat… Nintendo     14.4      6.94     4.7 
##  7 Mari… DS       2005            Raci… Nintendo      9.71     7.47     4.13
##  8 Wii … Wii      2007            Spor… Nintendo      8.92     8.03     3.6 
##  9 Kine… X360     2010            Misc  Microsof…    15        4.89     0.24
## 10 Wii … Wii      2009            Spor… Nintendo      9.01     8.49     2.53
## # … with 9,940 more rows, and 8 more variables: other_sales <dbl>,
## #   global_sales <dbl>, critic_score <dbl>, critic_count <dbl>,
## #   user_score <dbl>, user_count <dbl>, developer <chr>, rating <chr>
```
…
```r
video_game_sales %>%
  select(name, genre, critic_score, critic_count) %>% 
  filter(critic_score >= 80, genre == "Role-Playing") %>% 
  arrange(critic_score)
```

```
## # A tibble: 233 x 4
##    name                                     genre      critic_score critic_count
##    <chr>                                    <chr>             <dbl>        <dbl>
##  1 Fable III                                Role-Play…           80           88
##  2 Star Ocean: Till The End of Time         Role-Play…           80           55
##  3 Dragon Quest IV: Chapters of the Chosen  Role-Play…           80           44
##  4 Dark Cloud                               Role-Play…           80           27
##  5 Final Fantasy: Crystal Chronicles        Role-Play…           80           55
##  6 Star Ocean: The Second Story             Role-Play…           80           13
##  7 Pokemon Conquest                         Role-Play…           80           40
##  8 Kingdoms of Amalur: Reckoning            Role-Play…           80           71
##  9 Final Fantasy Anthology                  Role-Play…           80           14
## 10 Final Fantasy Tactics A2: Grimoire of t… Role-Play…           80           47
## # … with 223 more rows
```
See that `arrange()` function we used? That sorted our search for role-playing games that critics scored at least 80 to show us the games in ascending order. We can also do descending order by using `arrange(desc())`.

```r
video_game_sales %>%
  select(name, genre, critic_score, critic_count) %>% 
  filter(critic_score >= 80, genre == "Platform") %>% 
  arrange(desc(critic_score))
```

```
## # A tibble: 100 x 4
##    name                               genre    critic_score critic_count
##    <chr>                              <chr>           <dbl>        <dbl>
##  1 Super Mario Galaxy                 Platform           97           73
##  2 Super Mario Galaxy 2               Platform           97           87
##  3 LittleBigPlanet                    Platform           95           85
##  4 Super Mario 3D World               Platform           93           83
##  5 Castlevania: Symphony of the Night Platform           93           12
##  6 Super Mario Sunshine               Platform           92           61
##  7 Rayman Legends                     Platform           92           35
##  8 Rayman Origins                     Platform           92           13
##  9 Crash Bandicoot 3: Warped          Platform           91           12
## 10 Spyro: Year of the Dragon          Platform           91           15
## # … with 90 more rows
```
…
```
##  [1] "name"            "platform"        "year_of_release" "genre"          
##  [5] "publisher"       "na_sales"        "eu_sales"        "jp_sales"       
##  [9] "other_sales"     "global_sales"    "critic_score"    "critic_count"   
## [13] "user_score"      "user_count"      "developer"       "rating"
```

```r
video_game_sales %>%
  mutate(percent_na_sales = na_sales/global_sales) %>% 
  select(name, na_sales, global_sales, percent_na_sales)
```

```
## # A tibble: 16,719 x 4
##    name                      na_sales global_sales percent_na_sales
##    <chr>                        <dbl>        <dbl>            <dbl>
##  1 Wii Sports                    41.4         82.5            0.501
##  2 Super Mario Bros.             29.1         40.2            0.723
##  3 Mario Kart Wii                15.7         35.5            0.441
##  4 Wii Sports Resort             15.6         32.8            0.476
##  5 Pokemon Red/Pokemon Blue      11.3         31.4            0.359
##  6 Tetris                        23.2         30.3            0.767
##  7 New Super Mario Bros.         11.3         29.8            0.379
##  8 Wii Play                      14.0         28.9            0.483
##  9 New Super Mario Bros. Wii     14.4         28.3            0.510
## 10 Duck Hunt                     26.9         28.3            0.951
## # … with 16,709 more rows
```
…
