…
```r
relig_income %>% 
    pivot_longer(-religion,
               names_to = "income_bracket",
               values_to = "num_households")
```

```
## # A tibble: 180 x 3
##    religion income_bracket     num_households
##    <chr>    <chr>                       <dbl>
##  1 Agnostic <$10k                          27
##  2 Agnostic $10-20k                        34
##  3 Agnostic $20-30k                        60
##  4 Agnostic $30-40k                        81
##  5 Agnostic $40-50k                        76
##  6 Agnostic $50-75k                       137
##  7 Agnostic $75-100k                      122
##  8 Agnostic $100-150k                     109
##  9 Agnostic >150k                          84
## 10 Agnostic Don't know/refused             96
## # … with 170 more rows
```
…
```r
qpcr_untidy %>% 
  pivot_longer(exp1_rep1:exp3_rep3,
    names_to= c("experiment", "replicate"),
    names_sep="_",
    values_to="mRNA_expression")
```

```
## # A tibble: 45 x 4
##    gene  experiment replicate mRNA_expression
##    <chr> <chr>      <chr>               <dbl>
##  1 A     exp1       rep1                 21.7
##  2 A     exp1       rep2                 19.8
##  3 A     exp1       rep3                 20.7
##  4 A     exp2       rep1                 18.3
##  5 A     exp2       rep2                 20.4
##  6 A     exp2       rep3                 17.6
##  7 A     exp3       rep1                 20.6
##  8 A     exp3       rep2                 19.9
##  9 A     exp3       rep3                 19.2
## 10 B     exp1       rep1                 24.3
## # … with 35 more rows
```
…
